<?xml version="1.0" encoding="UTF-8" standalone="no"?>
<svg width="420px" height="93px" viewBox="0 0 420 93" version="1.1" xmlns="http://www.w3.org/2000/svg" xmlns:xlink="http://www.w3.org/1999/xlink" xmlns:sketch="http://www.bohemiancoding.com/sketch/ns">
    <!-- Generator: Sketch 3.4.2 (15855) - http://www.bohemiancoding.com/sketch -->
    <title>Rectangle 2 + Rectangle 1</title>
    <desc>Created with Sketch.</desc>
    <defs></defs>
    <g id="Page-1" stroke="none" stroke-width="1" fill="none" fill-rule="evenodd" sketch:type="MSPage">
        <g id="Rectangle-2-+-Rectangle-1" sketch:type="MSLayerGroup">
            <rect id="Rectangle-2" stroke="#DBDBDB" stroke-width="2" fill="#F8F8F8" sketch:type="MSShapeGroup" x="0" y="0" width="420" height="93"></rect>
            <path d="M144.5,36.4846154 L395.5,36.4846154" id="Line" stroke="#979797" stroke-width="2" stroke-linecap="square" sketch:type="MSShapeGroup"></path>
            <path d="M144.5,50.7923077 L395.5,50.7923077" id="Line-Copy" stroke="#979797" stroke-width="2" stroke-linecap="square" sketch:type="MSShapeGroup"></path>
            <path d="M144.5,65.1 L395.5,65.1" id="Line-Copy-2" stroke="#979797" stroke-width="2" stroke-linecap="square" sketch:type="MSShapeGroup"></path>
            <path d="M144.5,79.4076923 L395.5,79.4076923" id="Line-Copy-3" stroke="#979797" stroke-width="2" stroke-linecap="square" sketch:type="MSShapeGroup"></path>
            <path d="M146.5,16.8115385 L393.5,16.8115385" id="Line" stroke="#979797" stroke-width="11" stroke-linecap="square" sketch:type="MSShapeGroup"></path>
            <rect id="Rectangle-1" fill="#E24949" sketch:type="MSShapeGroup" x="11" y="7.15384615" width="112" height="78.6923077"></rect>
        </g>
    </g>
</svg>