<?xml version="1.0" encoding="UTF-8" standalone="no"?>
<svg width="119px" height="140px" viewBox="0 0 119 140" version="1.1" xmlns="http://www.w3.org/2000/svg" xmlns:xlink="http://www.w3.org/1999/xlink" xmlns:sketch="http://www.bohemiancoding.com/sketch/ns">
    <!-- Generator: Sketch 3.4.2 (15855) - http://www.bohemiancoding.com/sketch -->
    <title>page_full_left + Rectangle 12</title>
    <desc>Created with Sketch.</desc>
    <defs></defs>
    <g id="Page-1" stroke="none" stroke-width="1" fill="none" fill-rule="evenodd" sketch:type="MSPage">
        <g id="page_full_left-+-Rectangle-12" sketch:type="MSLayerGroup" transform="translate(-8.000000, -7.000000)">
            <rect id="Rectangle-17" sketch:type="MSShapeGroup" x="0" y="0" width="135" height="151"></rect>
            <rect id="Rectangle-16" stroke="#D4D3D3" fill="#FFFFFF" sketch:type="MSShapeGroup" x="8" y="7" width="119" height="121" rx="8"></rect>
            <path d="M8.5,20.5 L126.5,20.5" id="Line" stroke="#D2D2D2" stroke-linecap="square" sketch:type="MSShapeGroup"></path>
            <rect id="Rectangle-12" fill="#9A0012" sketch:type="MSShapeGroup" x="84" y="38" width="30" height="72"></rect>
            <circle id="Oval-1" stroke="#979797" sketch:type="MSShapeGroup" cx="16" cy="14" r="2"></circle>
            <rect id="Rectangle-12-Copy" fill="#D0011B" sketch:type="MSShapeGroup" x="21" y="38" width="61" height="72"></rect>
            <circle id="Oval-1-Copy" stroke="#979797" sketch:type="MSShapeGroup" cx="22" cy="14" r="2"></circle>
            <circle id="Oval-1-Copy-2" stroke="#979797" sketch:type="MSShapeGroup" cx="28" cy="14" r="2"></circle>
            <rect id="Rectangle-14-Copy" fill="#D8D8D8" sketch:type="MSShapeGroup" x="21" y="112" width="93" height="12"></rect>
            <rect id="Rectangle-14" fill="#D8D8D8" sketch:type="MSShapeGroup" x="21" y="24" width="93" height="12"></rect>
            <text id="RIGHT-SIDEBAR" sketch:type="MSTextLayer" font-family="Open Sans" font-size="12" font-weight="bold" fill="#323232">
                <tspan x="24" y="146">RIGHT SIDEBAR</tspan>
            </text>
        </g>
    </g>
</svg>